/* XPM */
static char *_eaf7d5c49884212d0f28bac4fdfcf135KuZRJNynJ0cwSZn[] = {
/* columns rows colors chars-per-pixel */
"64 64 249 2 ",
"   c None",
".  c #010101",
"X  c #0A0304",
"o  c #0D0409",
"O  c #08080A",
"+  c #120405",
"@  c #13030A",
"#  c #130D09",
"$  c #190709",
"%  c #1A130C",
"&  c #090B14",
"*  c #180B16",
"=  c #171416",
"-  c #051218",
";  c #26030A",
":  c #34010C",
">  c #3C170D",
",  c #25071A",
"<  c #390415",
"1  c #23141A",
"2  c #381C17",
"3  c #20140C",
"4  c #312918",
"5  c #161628",
"6  c #111726",
"7  c #2B0925",
"8  c #291626",
"9  c #371928",
"0  c #380833",
"q  c #38052A",
"w  c #132F36",
"e  c #2B262D",
"r  c #352737",
"t  c #37312A",
"y  c #46070C",
"u  c #560C0D",
"i  c #490416",
"p  c #550618",
"a  c #4C190D",
"s  c #690317",
"d  c #75021D",
"f  c #7A031D",
"g  c #681206",
"h  c #522613",
"j  c #7A251B",
"k  c #67280E",
"l  c #54022D",
"z  c #46192B",
"x  c #490A36",
"c  c #54032F",
"v  c #630527",
"b  c #750428",
"n  c #67152A",
"m  c #740C36",
"M  c #583626",
"N  c #573734",
"B  c #4E2C32",
"V  c #673926",
"C  c #672A38",
"Z  c #56481B",
"A  c #594639",
"S  c #595526",
"D  c #684B29",
"F  c #1D1D42",
"G  c #162E4B",
"H  c #262347",
"J  c #372B45",
"K  c #332A5C",
"L  c #312F4B",
"P  c #201F4A",
"I  c #590A47",
"U  c #58184A",
"Y  c #44104E",
"T  c #68054A",
"R  c #750451",
"E  c #6A0F50",
"W  c #562547",
"Q  c #5A3847",
"!  c #493451",
"~  c #64294B",
"^  c #732F55",
"/  c #693768",
"(  c #094756",
")  c #365A5D",
"_  c #2E4D54",
"`  c #11526F",
"'  c #30556C",
"]  c #176065",
"[  c #5A4647",
"{  c #4B5451",
"}  c #565654",
"|  c #4D4D4D",
" . c #674248",
".. c #774449",
"X. c #715451",
"o. c #746A4A",
"O. c #716B59",
"+. c #6B5078",
"@. c #77796C",
"#. c #4C6163",
"$. c #96091A",
"%. c #8B131A",
"&. c #B1161B",
"*. c #8C2915",
"=. c #B3320E",
"-. c #840323",
";. c #8E032C",
":. c #880328",
">. c #930528",
",. c #8C053B",
"<. c #920639",
"1. c #911B2C",
"2. c #A51E2E",
"3. c #AD0739",
"4. c #B8083A",
"5. c #B9123C",
"6. c #8B2224",
"7. c #8D392A",
"8. c #B73922",
"9. c #B22D2A",
"0. c #D41516",
"q. c #CE1219",
"w. c #EE1717",
"e. c #FA2B04",
"r. c #FB2D0C",
"t. c #C2133E",
"y. c #CD1227",
"u. c #E21325",
"i. c #D42224",
"p. c #C83528",
"a. c #CE3029",
"s. c #FA2728",
"d. c #E83527",
"f. c #EA3E37",
"g. c #FC312F",
"h. c #CB371D",
"j. c #AB4816",
"k. c #874728",
"l. c #98533C",
"z. c #8B5237",
"x. c #AF4B2F",
"c. c #92763A",
"v. c #B96A36",
"b. c #AB7339",
"n. c #FC4308",
"m. c #FA5619",
"M. c #F25114",
"N. c #D2681B",
"B. c #FB651A",
"V. c #C84125",
"C. c #D75933",
"Z. c #D3542E",
"A. c #F54B2A",
"S. c #F95924",
"D. c #E94236",
"F. c #FB5737",
"G. c #EE4C31",
"H. c #D87821",
"J. c #CD722C",
"K. c #FC6325",
"L. c #F9652A",
"P. c #FC653C",
"I. c #FC6A3C",
"U. c #F76439",
"Y. c #FC7234",
"T. c #8D034C",
"R. c #860447",
"E. c #960446",
"W. c #880352",
"Q. c #970A52",
"!. c #AD0C4C",
"~. c #92304F",
"^. c #B42F44",
"/. c #B2396B",
"(. c #993677",
"). c #CC075A",
"_. c #E90E5E",
"`. c #F6165B",
"'. c #FD1F41",
"]. c #D42749",
"[. c #C92E51",
"{. c #E6354E",
"}. c #FB255C",
"|. c #E72A57",
" X c #D91463",
".X c #F73768",
"XX c #E8356D",
"oX c #C8376C",
"OX c #904D54",
"+X c #887542",
"@X c #8C6E52",
"#X c #BC7851",
"$X c #B07049",
"%X c #954769",
"&X c #91476D",
"*X c #AF4E6E",
"=X c #887E6B",
"-X c #B16B63",
";X c #DB774E",
":X c #FA7646",
">X c #F4586D",
",X c #FB6679",
"<X c #EB6073",
"1X c #C65E66",
"2X c #A78936",
"3X c #A4913A",
"4X c #B49133",
"5X c #BA8930",
"6X c #C3812B",
"7X c #908A43",
"8X c #BA8C66",
"9X c #BA916E",
"0X c #958771",
"qX c #D78154",
"wX c #FD814D",
"eX c #FC8955",
"rX c #FB935A",
"tX c #CD9072",
"yX c #FC9B6B",
"uX c #FA9465",
"iX c #F3946D",
"pX c #CEA47A",
"aX c #FAA875",
"sX c #F4A771",
"dX c #2E5B81",
"fX c #6B5285",
"gX c #755484",
"hX c #4E5884",
"jX c #A54889",
"kX c #DA4788",
"lX c #D6599B",
"zX c #C15189",
"xX c #E25895",
"cX c #E34985",
"vX c #DC629D",
"bX c #D8678C",
"nX c #E7669B",
"mX c #FA6C94",
"MX c #F9769B",
"NX c #F86C88",
"BX c #E76BA1",
"VX c #FCBA8B",
"CX c #F8B487",
"ZX c #F4B88B",
"AX c #DFAD81",
"SX c #FAC596",
"DX c #FAC18F",
"FX c #FACDA6",
"GX c #FED0AB",
/* pixels */
"                                                    . . . . . . . . . . . .                                                     ",
"                                            . . . . . . . . . . . . . . . . . . . .                                             ",
"                                        . . . . . . . . * * 1 7 7 8 = * O . . . O . . .                                         ",
"                                  . . . . . . o 7 0 I I U U U W W ~ ~ Q Q [ N 9 % . . . . . .                                   ",
"                                . . . . . 7 I E U I I U U I U W U W W Q Q  .[ [ } A t # . . . .                                 ",
"                            . . . . X q I T I T I I I I 0 0 0 7 7 8 9 B W Q Q | { { } } A = . . . .                             ",
"                          . . . o x R R R T T T x , @ . . . . . . . . . . O = r | { { { ] ) L # . . .                           ",
"                      . . . . , R W.R R R I , . . . . . O . . . . . . . . . . . . = t ) ] ] ) ) w . . . .                       ",
"                    . . . . x Q.!.Q.Q.T , . . . . . . . . . . . . . . . . . . . . . . & w ] ] ) ` G & . . .                     ",
"                  . O . X Q. X).!.!.x X . . . . . . . . . . . . . O . . . . . . . . . . . - ( ] ` ` ` - . . .                   ",
"                . . . # !. X_.).,.@ . . . . . . . . . . . . . . . . . . . . . . . . . . . . . w ` dXdX' 6 . . .                 ",
"              . . . @ !. X_._.l . . . . . . . . . . . . . . . . . . . . . . . . . . . . . . . . 6 ` dXdXdX5 . . .               ",
"              . . o [.}.`.`.i . . . . . . . . . . . . . . . . . . . . . . . . . . . . . . . . . . - ' dXhXfX5 . .               ",
"            . . . 2.`.`.`.i . . . . . . . . . . . X R.T.T c . . 0 Y K K . . . . . . . . . . . . . . O ' fXfX+.@ . .             ",
"          . . . m }.}.}.l . . O . . . . . . . . . X E.E.R l . . 0 Y K K O . . . . . . . . . . . . . . & +.fXfX/ . . .           ",
"          . . < }.}.}.n . . . . . . . . . . . . . + !.!.!.c . . 0 Y K K O . . . . . . . . . . . . . . . = +.gX&XW . .           ",
"        . . X ].}.}.^.. . . . . . . . . . . . . . X !.4.4.b . . x U ! ! O . . . . . . . . . . . . . . . . e +.&X&X= . .         ",
"      . . . n .X.X|.+ . . . . . . . . . . . . . . X 4.4.3.b . . n R ^ K O . . . . . . . . . . . . . . . . . [ &X%X^ . . .       ",
"      . . o XX.X.Xn . . . . . . . . . . i p p u p u y.4.3.-.< y %.2.2.7.% # . . . . . . . . . . . . . . . . O &X%X%X9 . .       ",
"      . . C XX.X[.. . . . . . . . . . + '.'.g.s.s.w.u.u.y.q.q.q.0.2.2.8.l.l.k.k.t % . . . . . . . . . . . . . B %X%X^ X .       ",
"    . . X oXXXXXz X . . . . . . . . . + g.s.g.s.s.s.w.u.w.q.q.0.0.q.9.V.x.OXv.b.7X7XS . . . . . . . . . . . . X ~.OXOX1 . .     ",
"    . . z kXkX/.. . . . . . . . . . . X x.a.g.g.s.s.r.r.w.w.q.0.0.0.p.V.j.l.v.v.c.7X7XS . . . . . . . . . . . . t OX^ B . .     ",
"  . . . ~.cXcXC . . . . . . . . . . . . . . X *.m.r.e.e.e.0.u g g g *.=.M.N.J.J.5X3X3X3X3 . . . . . . . . . . . # D .. .X . .   ",
"  . O @ cXcXcX@ . . . . . . . . . . . . . . . k m.n.n.e.e.=.. . X . . . % j.H.H.6X4X4X4XZ . . . . . . . . . . . . N  ...1 . .   ",
"  . . z kXkX(.. . . . . . . . . . . X . . . . k M.n.n.n.e.=.# . . . . . . % H.H.6X6X4X4XZ . . . . . . . . . . . . 9  .[ r . .   ",
"  . . ^ kXxX~ X . . . . . . . . . . . . . . . h m.m.M.m.B.=.O . . X . . . . N.H.6Xb.2X3XZ . . . . . . . . . . . . # N Q ! . .   ",
". . . (.lXxX9 . . . . . . . . . . . . . . . X h Y.Y.L.B.K.j.. . . . . . . . N.H.2X2X2X3X4 . . . . . . . . . . . . . r ! ! O . . ",
". . O zXlXlXo . . . . . . . . . . . . . . . . M rXrXrXrXeXv.. . . . . . . $ b.b.o.o.c.o.O . . . . . . . . . . . . . e J r * . . ",
". . & lXlXzX. . . . . . . . . . . . . . . . . M aXyXrXrXeXJ.. . . . . . . D b.@Xo.o.o.4 . . . . . . . . . . . . . . 8 J H 6 . . ",
". . 8 lXlX(.. . . . . . . . . . . . . . . . . A DXaXsXrXrX#X# % # # % 4 z.qX$Xo.o.o.4 . . . . . . . . . . . . . . . - F F 5 . . ",
". . 9 lXvX%XX . . . . . . . . . . . . . . . . A GXFXFXDXsXaXaXsXaXsX8X8X8X8X@XO.} = . . . . . . . . . . . . . . . . - F P 5 . . ",
". . z BXvX&X. . . . . . . . . . . . . . . . . A GXGXGXFXSXDXaXCXDXAXpX9X8X0X@.) w 6 O . . . . . . . . . . . . . . . & F P 5 . . ",
"O . z vXBX%X. . . . . . . . . . . . . . . . . A GXGXFXGXSXSXDXVXZXZXpX9X0X@.@.) ' ( ( G O . . . . . . . . . . . . . & F P 5 O . ",
". . 9 vXBX*X. . . . . . . . . . . . . . . . . [ GXFXGXFXSXAX@X@X@X@Xo.X.O.0X@.#.' ( ( _ G 6 . . . . . . . . . . . . * H P r . . ",
". . 2 xXBX*X. . . . . . . . . . . . . . . . . A FXFXFXSXDXtX. . . . . . . O t } #.! { [ ! L O . . . . . . . . . . . = H ! r . . ",
". . , BXMXbX. . . . . . . . . . . . . . . . . A VXDXSXSXDX9X. . . . . . . . . & X.} |  .A L e . . . . . . . . . . . 5 J ! 8 . . ",
". . . mXmXBX@ . . . . . . . . . . . . . . . . A VXCXCXaXsX#X. . . . . . . . . . D X.[ X. .[ J . . . . . . . . . . . N OXX.8 . . ",
". . O 1XmXCX9 . . . . . . . . . . . . . . . . N CXCXyXuXyX#X. . . . . . . . . . V C.C.x.l.x.C.. . . . . . . . . . . @X-X-X1 . . ",
"  . . %XMXMXC . . . . . . . . . . . . . . . . M yXuXuXuXyX#X. . . . . . . . . . k.L.L.C.C.L.Z.. . . . . . . . . . $ 1X-X-X. .   ",
"  . . C NXmX*X. . . . . . . . . . . . . . . . M yXeXwXwXeX#X. . . . . . . . . # C.L.L.L.K.F.j.. . . . . . . . . . M iXtXOX. .   ",
"  . . $ NXNX,XX . . . . . . . . . . . . . . . h :X:X:X:X:XJ.. . . . . . . . % x.L.L.L.K.B.K.> . . . . . . . . . . $XyXyXV . .   ",
"  . . . *X,X,XM . . . . . . . . . . . . . . . 7.F.:X:X:X:XC.> > > 2 a h k j.S.m.B.B.B.B.B.j.. . . . . . . . . . o iXyXiX1 . .   ",
"    . . C ,X,X1X. . . . . . . . . . . X 7.8.C.:XP.P.P.I.:XU.I.I.U.Y.Y.L.K.K.m.m.B.B.B.B.j.. . . . . . . . . . . D uXyX#X. .     ",
"    . . + <X,X>X2 . . . . . . . . . . # U.P.U.P.F.:XP.:XF.F.U.F.F.F.S.L.K.S.S.m.m.M.B.k X . . . . . . . . . . . ;XuXuXM . .     ",
"      . . ~.>X>X^.. . . . . . . . . . + F.D.F.F.F.F.F.D.F.A.F.F.F.G.A.m.K.S.m.M.j.g X . . . . . . . . . . . . V uXuX;XO .       ",
"      . . $ [.].{.a . . . . . . . . . X j j m j j *.D.f.A.Z.j j V.G.A.A.k a ; X . . . . . . . . . . . . . . # qXrXeXV . .       ",
"      . . . n ].{.[.X . . . . . . . . . . . X . . o f.D.D.8.. . =.G.A.A.+ . . . . . . . . . . . . . . . . . 7.:X:X;XX . .       ",
"        . . @ ^.].{.6.. . . . . . . . . . . . . . . f.D.D.9.. . 7.d.a.h.+ . . . . . . . . . . . . . . . . 2 F.:X:Xh . .         ",
"          . . < ].].a.i . . . . . . . . . . . . . X D.D.D.9.. . 6.9.p.a.+ . . . . . . . . . . . . . . . $ d.F.U.7.X .           ",
"          . . . v t.t.t., . . . . . . . . . . . . X f.f.f.6.. . %.p.a.p.+ . . . . . . . . . . . . . . o 8.A.F.C.+ . .           ",
"            . . X ,.t.t.5.; . . . . . . . . . . . X a.5.9.1.. . j 9.p.&.X . . . . . . . . . . . . . . &.d.d.G.> . .             ",
"              . . + 1.!.t.5.; . . . . . . . . . . . $ $ + + . . + $ + + . . . . . . . . . . . . . X 6.i.d.d.h . .               ",
"              . . . @ E.3.5.t.< X . . . . . . . . . . . . . . . . . . . . . . . . . . . . . . . + %.i.i.i.u . . .               ",
"                . . . ; ,.E.E.5.v X . . . . . . . . . . . . . . . . . . . . . . . . . . . . . ; $.&.i.i.u . . .                 ",
"                  . . . @ m E.E.!.>.; . . . . . . . . . . . . . . . . . . . . . . . . . . X y $.$.$.q.y . . .                   ",
"                    . . . X v E.E.E.E.v @ . . . . . . . . . . . . . . . . . . . . . . . : d f >.$.$.$ . . .                     ",
"                      . . . . < W.W.T.T.T.l ; . . . . . . . . . . . . . . . . . . X : s f d f >.s X . . .                       ",
"                          . . . @ c T.T.T.E.T.m i ; . . . . . . . . . . . . + : p d f d d d s ; . . .                           ",
"                            . . . . @ m T.T.W.T.T.<.,.b p i < < : : i i s f f d d d d d s ; . . . .                             ",
"                                . . . . @ c R.T.E.R.E.<.<.;.;.;.;.;.-.-.f -.b d d d p ; . . . .                                 ",
"                                  . . . . . . , l m ,.,.,.;.;.;.;.;.:.-.-.-.d i ; X . . . . .                                   ",
"                                        . . . . . . X $ : i i p p i i : ; X . . . . . .                                         ",
"                                            . . . . . . . . . . . . . . . . . . . .                                             ",
"                                                    . . . . . . . . . . . .                                                     "
};
